Download and Tidy Data from the Reserve Bank of Australia • readrba
…
Browsing RBA data

Two functions are provided to help you find the table number or series ID you need. These are browse_rba_tables() and browse_rba_series(). Each returns a tibble with information about the available RBA data.

browse_rba_tables()
#> # A tibble: 123 x 5
#>    title                   no    url                  current_or_histo… readable
#>    <chr>                   <chr> <chr>                <chr>             <lgl>   
#>  1 Liabilities and Assets… A1    https://rba.gov.au/… current           TRUE    
#>  2 Liabilities and Assets… A1.1  https://rba.gov.au/… current           TRUE    
#>  3 Monetary Policy Changes A2    https://rba.gov.au/… current           TRUE    
#>  4 Monetary Policy Operat… A3    https://rba.gov.au/… current           TRUE    
#>  5 Holdings of Australian… A3.1  https://rba.gov.au/… current           TRUE    
#>  6 Foreign Exchange Trans… A4    https://rba.gov.au/… current           TRUE    
#>  7 Daily Foreign Exchange… A5    https://rba.gov.au/… current           TRUE    
#>  8 Banknotes on Issue by … A6    https://rba.gov.au/… current           TRUE    
#>  9 Detected Australian Co… A7    https://rba.gov.au/… current           TRUE    
#> 10 Assets of Financial In… B1    https://rba.gov.au/… current           TRUE    
#> # … with 113 more rows

browse_rba_series()
#> # A tibble: 4,382 x 8
#>    table_no series series_id series_type table_title cur_hist description
#>    <chr>    <chr>  <chr>     <chr>       <chr>       <chr>    <chr>      
#>  1 A1       Austr… ARBAAASTW Original    A1 Reserve… current  Australian…
#>  2 A1       Capit… ARBALCRFW Original    A1 Reserve… current  Capital an…
#>  3 A1       Depos… ARBALDEPW Original    A1 Reserve… current  Deposits (…
#>  4 A1       Excha… ARBALESBW Original    A1 Reserve… current  Exchange s…
#>  5 A1       Gold … ARBAAGFXW Original    A1 Reserve… current  Gold and f…
#>  6 A1       Notes… ARBALNOIW Original    A1 Reserve… current  Notes on i…
#>  7 A1       Other… ARBAAOAW  Original    A1 Reserve… current  Other asse…
#>  8 A1       Other… ARBALOLW  Original    A1 Reserve… current  Other liab…
#>  9 A1       Total… ARBAATAW  Original    A1 Reserve… current  Total RBA …
#> 10 A1       Total… ARBALTLW  Original    A1 Reserve… current  Total RBA …
#> # … with 4,372 more rows, and 1 more variable: frequency <chr>
…
browse_rba_tables("inflation")
#> # A tibble: 3 x 5
#>   title                 no    url                     current_or_histo… readable
#>   <chr>                 <chr> <chr>                   <chr>             <lgl>   
#> 1 Consumer Price Infla… G1    https://rba.gov.au/sta… current           TRUE    
#> 2 Consumer Price Infla… G2    https://rba.gov.au/sta… current           TRUE    
#> 3 Inflation Expectatio… G3    https://rba.gov.au/sta… current           TRUE

RBA forecasts

The function rba_forecasts() provides easy access to all the RBA’s public forecasts of key economic variables since 1990. The function scrapes the RBA website to obtain the latest Statement on Monetary Policy forecasts.

rba_forecasts()
#> # A tibble: 6,355 x 8
#>    series_desc    forecast_date notes source value date       year_qtr series   
#>    <chr>          <date>        <chr> <chr>  <dbl> <date>        <dbl> <chr>    
#>  1 CPI - 4 quart… 1990-03-01    <NA>  JEFG     8.6 1990-03-01    1990. cpi_annu…
#>  2 CPI - 4 quart… 1990-03-01    <NA>  JEFG     7.6 1990-06-01    1990. cpi_annu…
#>  3 CPI - 4 quart… 1990-03-01    <NA>  JEFG     6.5 1990-09-01    1990. cpi_annu…
#>  4 CPI - 4 quart… 1990-03-01    <NA>  JEFG     6   1990-12-01    1990. cpi_annu…
#>  5 CPI - 4 quart… 1990-03-01    <NA>  JEFG     5.9 1991-03-01    1991. cpi_annu…
#>  6 CPI - 4 quart… 1990-03-01    <NA>  JEFG     6.2 1991-06-01    1991. cpi_annu…
#>  7 Unemployment … 1990-03-01    <NA>  JEFG     5.9 1989-12-01    1989. unemp_ra…
#>  8 Unemployment … 1990-03-01    <NA>  JEFG     6.3 1990-03-01    1990. unemp_ra…
#>  9 Unemployment … 1990-03-01    <NA>  JEFG     6.5 1990-06-01    1990. unemp_ra…
#> 10 Unemployment … 1990-03-01    <NA>  JEFG     6.7 1990-09-01    1990. unemp_ra…
#> # … with 6,345 more rows

If you just want the latest forecasts, you can request them:

rba_forecasts(all_or_latest = "latest")
#> # A tibble: 102 x 8
#>    forecast_date date       series   value series_desc  source notes    year_qtr
#>    <date>        <date>     <chr>    <dbl> <chr>        <chr>  <chr>       <dbl>
#>  1 2020-11-01    2020-06-01 aena_c…  11.6  Nominal (no… SMP    (a) For…    2020.
#>  2 2020-11-01    2020-12-01 aena_c…   4.25 Nominal (no… SMP    (a) For…    2020.
#>  3 2020-11-01    2021-06-01 aena_c…  -7.25 Nominal (no… SMP    (a) For…    2021.
#>  4 2020-11-01    2021-12-01 aena_c…  -2.25 Nominal (no… SMP    (a) For…    2021.
#>  5 2020-11-01    2022-06-01 aena_c…   1    Nominal (no… SMP    (a) For…    2022.
#>  6 2020-11-01    2022-12-01 aena_c…   1.75 Nominal (no… SMP    (a) For…    2022.
#>  7 2020-11-01    2020-06-01 busine…  -5.5  Business in… SMP    (a) For…    2020.
#>  8 2020-11-01    2020-12-01 busine… -14    Business in… SMP    (a) For…    2020.
#>  9 2020-11-01    2021-06-01 busine…  -9    Business in… SMP    (a) For…    2021.
#> 10 2020-11-01    2021-12-01 busine…   4    Business in… SMP    (a) For…    2021.
#> # … with 92 more rows
…
