…
### Browsing RBA data

Two functions are provided to help you find the table number or series
ID you need. These are `browse_rba_tables()` and `browse_rba_series()`.
Each returns a tibble with information about the available RBA data.

``` r
readrba::browse_rba_tables()
#> # A tibble: 123 x 5
#>    title                   no    url                  current_or_histo… readable
#>    <chr>                   <chr> <chr>                <chr>             <lgl>   
#>  1 Liabilities and Assets… A1    https://rba.gov.au/… current           TRUE    
#>  2 Liabilities and Assets… A1.1  https://rba.gov.au/… current           TRUE    
#>  3 Monetary Policy Changes A2    https://rba.gov.au/… current           TRUE    
#>  4 Monetary Policy Operat… A3    https://rba.gov.au/… current           TRUE    
#>  5 Holdings of Australian… A3.1  https://rba.gov.au/… current           TRUE    
#>  6 Foreign Exchange Trans… A4    https://rba.gov.au/… current           TRUE    
#>  7 Daily Foreign Exchange… A5    https://rba.gov.au/… current           FALSE   
#>  8 Banknotes on Issue by … A6    https://rba.gov.au/… current           TRUE    
#>  9 Detected Australian Co… A7    https://rba.gov.au/… current           TRUE    
#> 10 Assets of Financial In… B1    https://rba.gov.au/… current           TRUE    
#> # … with 113 more rows
```

``` r
readrba::browse_rba_series()
#> # A tibble: 4,252 x 8
#>    table_no series series_id series_type table_title cur_hist description
#>    <chr>    <chr>  <chr>     <chr>       <chr>       <chr>    <chr>      
#>  1 A1       Austr… ARBAAASTW Original    A1 Reserve… current  Australian…
#>  2 A1       Capit… ARBALCRFW Original    A1 Reserve… current  Capital an…
#>  3 A1       Depos… ARBALDEPW Original    A1 Reserve… current  Deposits (…
#>  4 A1       Excha… ARBALESBW Original    A1 Reserve… current  Exchange s…
#>  5 A1       Gold … ARBAAGFXW Original    A1 Reserve… current  Gold and f…
#>  6 A1       Notes… ARBALNOIW Original    A1 Reserve… current  Notes on i…
#>  7 A1       Other… ARBAAOAW  Original    A1 Reserve… current  Other asse…
#>  8 A1       Other… ARBALOLW  Original    A1 Reserve… current  Other liab…
#>  9 A1       Total… ARBAATAW  Original    A1 Reserve… current  Total RBA …
#> 10 A1       Total… ARBALTLW  Original    A1 Reserve… current  Total RBA …
#> # … with 4,242 more rows, and 1 more variable: frequency <chr>
```
…
